Are we more civilized today?
…
#Plotting the reign duration of Danish Monarchs through time 
# YOUR CODE HERE:

read_csv2("data/Danish_Monarchs.csv")

## # A tibble: 57 × 5
##    Name         Birth_year Death_year Reign_start Reign_end
##    <chr>             <dbl>      <dbl>       <dbl>     <dbl>
##  1 Frederik_10        1968         NA        2024        NA
##  2 Margrethe_2        1940         NA        1972      2024
##  3 Frederik_9         1899       1972        1947      1972
##  4 Christian_10       1870       1947        1912      1947
##  5 Frederik_8         1843       1912        1906      1912
##  6 Christian_9        1818       1906        1863      1906
##  7 Frederik_7         1808       1863        1848      1863
##  8 Christian_8        1786       1848        1839      1848
##  9 Frederik_6         1768       1839        1808      1839
## 10 Christian_7        1749       1808        1766      1808
## # ℹ 47 more rows
…
